EESchema Schematic File Version 4
EELAYER 30 0
EELAYER END
$Descr A4 11693 8268
encoding utf-8
Sheet 1 1
Title ""
Date ""
Rev ""
Comp ""
Comment1 ""
Comment2 ""
Comment3 ""
Comment4 ""
$EndDescr
$Comp
L aca:Q_NJFET_DGS Q4
U 1 1 5A09FDBB
P 3310 3380
F 0 "Q4" H 3150 3520 50  0000 L CNN
F 1 "2SK170" H 3050 3200 50  0000 L CNN
F 2 "Package_TO_SOT_THT:TO-92L_Inline" H 3510 3480 50  0001 C CNN
F 3 "" H 3310 3380 50  0001 C CNN
	1    3310 3380
	1    0    0    -1  
$EndComp
$Comp
L aca:R R9
U 1 1 5A0A0C5E
P 3410 4010
F 0 "R9" V 3490 4010 50  0000 C CNN
F 1 "1k/2W" V 3310 4020 50  0000 C CNN
F 2 "Resistor_THT:R_Axial_DIN0309_L9.0mm_D3.2mm_P20.32mm_Horizontal" V 3340 4010 50  0001 C CNN
F 3 "" H 3410 4010 50  0001 C CNN
	1    3410 4010
	1    0    0    -1  
$EndComp
$Comp
L aca:R R6
U 1 1 5A0A0D8D
P 5110 3710
F 0 "R6" V 5190 3710 50  0000 C CNN
F 1 "100" V 5110 3710 50  0000 C CNN
F 2 "Resistor_THT:R_Axial_DIN0207_L6.3mm_D2.5mm_P10.16mm_Horizontal" V 5040 3710 50  0001 C CNN
F 3 "" H 5110 3710 50  0001 C CNN
	1    5110 3710
	0    1    1    0   
$EndComp
$Comp
L aca:Q_NMOS_GDS Q1
U 1 1 5A0A0E84
P 5610 3710
F 0 "Q1" H 5810 3760 50  0000 L CNN
F 1 "IRFP240" H 5810 3660 50  0000 L CNN
F 2 "Package_TO_SOT_THT:TO-247-3_Vertical" H 5810 3810 50  0001 C CNN
F 3 "" H 5610 3710 50  0001 C CNN
	1    5610 3710
	1    0    0    -1  
$EndComp
$Comp
L aca:R R3
U 1 1 5A0A0EBB
P 5710 2370
F 0 "R3" V 5790 2370 50  0000 C CNN
F 1 "0.33/5W" V 5620 2360 50  0000 C CNN
F 2 "Resistor_THT:R_Axial_Power_L25.0mm_W9.0mm_P30.48mm" V 5640 2370 50  0001 C CNN
F 3 "" H 5710 2370 50  0001 C CNN
	1    5710 2370
	1    0    0    -1  
$EndComp
$Comp
L aca:R R1
U 1 1 5A0A0EEA
P 5330 1180
F 0 "R1" V 5410 1180 50  0000 C CNN
F 1 "0.22/5W" V 5240 1180 50  0000 C CNN
F 2 "Resistor_THT:R_Axial_Power_L25.0mm_W9.0mm_P30.48mm" V 5260 1180 50  0001 C CNN
F 3 "" H 5330 1180 50  0001 C CNN
	1    5330 1180
	0    1    1    0   
$EndComp
$Comp
L aca:CP C1
U 1 1 5A0A0F85
P 6010 1180
F 0 "C1" H 6035 1280 50  0000 L CNN
F 1 "2200µ" H 6035 1080 50  0000 L CNN
F 2 "Capacitor_THT:CP_Radial_D16.0mm_P7.50mm" H 6048 1030 50  0001 C CNN
F 3 "" H 6010 1180 50  0001 C CNN
	1    6010 1180
	0    -1   -1   0   
$EndComp
$Comp
L aca:R R14
U 1 1 5A0A101F
P 6310 4010
F 0 "R14" V 6390 4010 50  0000 C CNN
F 1 "1k/2W" V 6220 4010 50  0000 C CNN
F 2 "Resistor_THT:R_Axial_DIN0309_L9.0mm_D3.2mm_P20.32mm_Horizontal" V 6240 4010 50  0001 C CNN
F 3 "" H 6310 4010 50  0001 C CNN
	1    6310 4010
	1    0    0    -1  
$EndComp
$Comp
L aca:Q_NMOS_GDS Q2
U 1 1 5A0A1199
P 4210 1280
F 0 "Q2" V 4450 1230 50  0000 L CNN
F 1 "IRFP240" V 4130 890 50  0000 L CNN
F 2 "Package_TO_SOT_THT:TO-247-3_Vertical" H 4410 1380 50  0001 C CNN
F 3 "" H 4210 1280 50  0001 C CNN
	1    4210 1280
	0    -1   -1   0   
$EndComp
$Comp
L aca:R R5
U 1 1 5A0A126E
P 4210 1730
F 0 "R5" V 4290 1730 50  0000 C CNN
F 1 "100" V 4210 1730 50  0000 C CNN
F 2 "Resistor_THT:R_Axial_DIN0207_L6.3mm_D2.5mm_P10.16mm_Horizontal" V 4140 1730 50  0001 C CNN
F 3 "" H 4210 1730 50  0001 C CNN
	1    4210 1730
	-1   0    0    1   
$EndComp
$Comp
L aca:R R8
U 1 1 5A0A15AB
P 4910 1750
F 0 "R8" V 4990 1750 50  0000 C CNN
F 1 "1k" V 4910 1750 50  0000 C CNN
F 2 "Resistor_THT:R_Axial_DIN0207_L6.3mm_D2.5mm_P10.16mm_Horizontal" V 4840 1750 50  0001 C CNN
F 3 "" H 4910 1750 50  0001 C CNN
	1    4910 1750
	-1   0    0    1   
$EndComp
$Comp
L aca:CP C2
U 1 1 5A0A16CE
P 3810 2330
F 0 "C2" H 3835 2430 50  0000 L CNN
F 1 "1000µ" H 3835 2230 50  0000 L CNN
F 2 "Capacitor_THT:CP_Radial_D12.5mm_P5.00mm" H 3848 2180 50  0001 C CNN
F 3 "" H 3810 2330 50  0001 C CNN
	1    3810 2330
	1    0    0    -1  
$EndComp
$Comp
L aca:R R7
U 1 1 5A0A176C
P 3810 1740
F 0 "R7" V 3890 1740 50  0000 C CNN
F 1 "10k" V 3810 1740 50  0000 C CNN
F 2 "Resistor_THT:R_Axial_DIN0207_L6.3mm_D2.5mm_P10.16mm_Horizontal" V 3740 1740 50  0001 C CNN
F 3 "" H 3810 1740 50  0001 C CNN
	1    3810 1740
	-1   0    0    1   
$EndComp
$Comp
L aca:R R13
U 1 1 5A0A2D24
P 3070 1530
F 0 "R13" V 3150 1530 50  0000 C CNN
F 1 "10k" V 3070 1530 50  0000 C CNN
F 2 "Resistor_THT:R_Axial_DIN0207_L6.3mm_D2.5mm_P10.16mm_Horizontal" V 3000 1530 50  0001 C CNN
F 3 "" H 3070 1530 50  0001 C CNN
	1    3070 1530
	-1   0    0    1   
$EndComp
$Comp
L aca:CP C4
U 1 1 5A0A2E2A
P 2660 1510
F 0 "C4" H 2685 1610 50  0000 L CNN
F 1 "2200µ" H 2685 1410 50  0000 L CNN
F 2 "Capacitor_THT:CP_Radial_D16.0mm_P7.50mm" H 2698 1360 50  0001 C CNN
F 3 "" H 2660 1510 50  0001 C CNN
	1    2660 1510
	1    0    0    -1  
$EndComp
$Comp
L aca:GND #PWR01
U 1 1 5A0A2E8B
P 1610 2490
F 0 "#PWR01" H 1610 2240 50  0001 C CNN
F 1 "GND" H 1610 2340 50  0000 C CNN
F 2 "" H 1610 2490 50  0001 C CNN
F 3 "" H 1610 2490 50  0001 C CNN
	1    1610 2490
	1    0    0    -1  
$EndComp
$Comp
L aca:GND #PWR02
U 1 1 5A0A37A1
P 6310 4340
F 0 "#PWR02" H 6310 4090 50  0001 C CNN
F 1 "GND" H 6310 4190 50  0000 C CNN
F 2 "" H 6310 4340 50  0001 C CNN
F 3 "" H 6310 4340 50  0001 C CNN
	1    6310 4340
	1    0    0    -1  
$EndComp
$Comp
L aca:R R12
U 1 1 5A0A3962
P 2080 2850
F 0 "R12" V 2160 2850 50  0000 C CNN
F 1 "68k" V 2080 2850 50  0000 C CNN
F 2 "Resistor_THT:R_Axial_DIN0207_L6.3mm_D2.5mm_P10.16mm_Horizontal" V 2010 2850 50  0001 C CNN
F 3 "" H 2080 2850 50  0001 C CNN
	1    2080 2850
	-1   0    0    1   
$EndComp
$Comp
L aca:R R10
U 1 1 5A0A3A6C
P 3770 3110
F 0 "R10" V 3850 3110 50  0000 C CNN
F 1 "330k" V 3770 3110 50  0000 C CNN
F 2 "Resistor_THT:R_Axial_DIN0207_L6.3mm_D2.5mm_P10.16mm_Horizontal" V 3700 3110 50  0001 C CNN
F 3 "" H 3770 3110 50  0001 C CNN
	1    3770 3110
	0    1    1    0   
$EndComp
$Comp
L aca:POT_TRIM RV1
U 1 1 5A0A3B62
P 4210 3110
F 0 "RV1" V 4035 3110 50  0000 C CNN
F 1 "5k" V 4110 3110 50  0000 C CNN
F 2 "footprints:Potentiometer_Triwood_RM-065" H 4210 3110 50  0001 C CNN
F 3 "" H 4210 3110 50  0001 C CNN
	1    4210 3110
	-1   0    0    1   
$EndComp
$Comp
L aca:PWR_FLAG #FLG03
U 1 1 5A0A79B9
P 1610 2290
F 0 "#FLG03" H 1610 2365 50  0001 C CNN
F 1 "PWR_FLAG" H 1610 2440 50  0000 C CNN
F 2 "" H 1610 2290 50  0001 C CNN
F 3 "" H 1610 2290 50  0001 C CNN
	1    1610 2290
	1    0    0    -1  
$EndComp
$Comp
L aca:PWR_FLAG #FLG04
U 1 1 5A0A7CC4
P 1610 1290
F 0 "#FLG04" H 1610 1365 50  0001 C CNN
F 1 "PWR_FLAG" H 1610 1440 50  0000 C CNN
F 2 "" H 1610 1290 50  0001 C CNN
F 3 "" H 1610 1290 50  0001 C CNN
	1    1610 1290
	-1   0    0    1   
$EndComp
$Comp
L aca:Conn_01x01 J2
U 1 1 5A0A7F66
P 1110 2410
F 0 "J2" H 1110 2510 50  0000 C CNN
F 1 "0V" H 1110 2310 50  0000 C CNN
F 2 "Connector_Wire:SolderWire-0.75sqmm_1x01_D1.25mm_OD3.5mm" H 1110 2410 50  0001 C CNN
F 3 "" H 1110 2410 50  0001 C CNN
	1    1110 2410
	-1   0    0    1   
$EndComp
$Comp
L aca:Conn_01x01 J1
U 1 1 5A0A81A1
P 1110 1180
F 0 "J1" H 1110 1280 50  0000 C CNN
F 1 "+20V" H 1110 1080 50  0000 C CNN
F 2 "Connector_Wire:SolderWire-0.75sqmm_1x01_D1.25mm_OD3.5mm" H 1110 1180 50  0001 C CNN
F 3 "" H 1110 1180 50  0001 C CNN
	1    1110 1180
	-1   0    0    1   
$EndComp
$Comp
L aca:Conn_01x01 J4
U 1 1 5A0A8406
P 1110 4250
F 0 "J4" H 1110 4350 50  0000 C CNN
F 1 "-in" H 1110 4150 50  0000 C CNN
F 2 "Connector_Wire:SolderWire-0.75sqmm_1x01_D1.25mm_OD3.5mm" H 1110 4250 50  0001 C CNN
F 3 "" H 1110 4250 50  0001 C CNN
	1    1110 4250
	-1   0    0    1   
$EndComp
$Comp
L aca:Conn_01x01 J6
U 1 1 5A0A8587
P 6610 4250
F 0 "J6" H 6610 4350 50  0000 C CNN
F 1 "+out" H 6610 4150 50  0000 C CNN
F 2 "Connector_Wire:SolderWire-0.75sqmm_1x01_D1.25mm_OD3.5mm" H 6610 4250 50  0001 C CNN
F 3 "" H 6610 4250 50  0001 C CNN
	1    6610 4250
	1    0    0    -1  
$EndComp
$Comp
L aca:Conn_01x01 J5
U 1 1 5A0A86F8
P 6660 1180
F 0 "J5" H 6660 1280 50  0000 C CNN
F 1 "-out" H 6660 1080 50  0000 C CNN
F 2 "Connector_Wire:SolderWire-0.75sqmm_1x01_D1.25mm_OD3.5mm" H 6660 1180 50  0001 C CNN
F 3 "" H 6660 1180 50  0001 C CNN
	1    6660 1180
	1    0    0    -1  
$EndComp
Text Label 6310 1050 0    60   ~ 0
out
Text Label 1320 1180 0    60   ~ 0
vdd
$Comp
L aca:Q_NPN_EBC Q3
U 1 1 5A0A1352
P 4310 2330
F 0 "Q3" H 4160 2460 50  0000 L CNN
F 1 "2N3904" H 4020 2190 50  0000 L CNN
F 2 "Package_TO_SOT_THT:TO-92L_Inline" H 4510 2430 50  0001 C CNN
F 3 "" H 4310 2330 50  0001 C CNN
	1    4310 2330
	-1   0    0    -1  
$EndComp
$Comp
L aca:R R15
U 1 1 5B8C0DE4
P 4910 2550
F 0 "R15" V 4820 2550 50  0000 C CNN
F 1 "2k2" V 4910 2550 50  0000 C CNN
F 2 "Resistor_THT:R_Axial_DIN0207_L6.3mm_D2.5mm_P10.16mm_Horizontal" V 4840 2550 50  0001 C CNN
F 3 "" H 4910 2550 50  0001 C CNN
	1    4910 2550
	1    0    0    -1  
$EndComp
Wire Wire Line
	2560 3380 2850 3380
Wire Wire Line
	2850 3110 3620 3110
Wire Wire Line
	3410 3580 3410 3710
Wire Wire Line
	3410 3710 4960 3710
Connection ~ 3410 3710
Wire Wire Line
	3410 1180 3410 3180
Wire Wire Line
	2660 1660 2660 2410
Wire Wire Line
	1310 2410 1610 2410
Connection ~ 3410 1180
Wire Wire Line
	3410 4160 3410 4250
Wire Wire Line
	6310 4160 6310 4250
Connection ~ 6310 4250
Wire Wire Line
	4210 4250 4210 3260
Wire Wire Line
	5710 4250 5710 3910
Connection ~ 4210 4250
Connection ~ 5710 4250
Connection ~ 3410 4250
Wire Wire Line
	1610 2290 1610 2410
Connection ~ 1610 2410
Wire Wire Line
	1610 1290 1610 1180
Connection ~ 1610 1180
Wire Wire Line
	3920 3110 4060 3110
Wire Wire Line
	5260 3710 5410 3710
Wire Wire Line
	5480 1180 5710 1180
Wire Wire Line
	5710 1180 5860 1180
Wire Wire Line
	4910 1600 4910 1180
Connection ~ 4910 1180
Wire Wire Line
	4910 1900 4910 2330
Wire Wire Line
	1310 1180 1610 1180
Wire Wire Line
	4410 1180 4910 1180
Wire Wire Line
	4210 1480 4210 1580
Wire Wire Line
	3810 1890 3810 2010
Wire Wire Line
	3810 1590 3810 1180
Connection ~ 3810 1180
Wire Wire Line
	4510 2330 4910 2330
Wire Wire Line
	4210 2530 4210 2760
Wire Wire Line
	5710 2520 5710 2760
Wire Wire Line
	6310 810  6310 1180
Wire Wire Line
	6160 1180 6310 1180
Connection ~ 5710 2760
Connection ~ 4210 2760
Wire Wire Line
	3810 2760 4210 2760
Wire Wire Line
	3810 2480 3810 2760
Wire Wire Line
	4210 1880 4210 2010
Wire Wire Line
	4210 2010 3810 2010
Connection ~ 3810 2010
Connection ~ 4210 2010
Wire Wire Line
	2850 3380 2850 3110
Connection ~ 2850 3380
Wire Wire Line
	2080 820  6310 810 
Wire Wire Line
	2080 3000 2080 3380
Connection ~ 2080 3380
Wire Wire Line
	2080 2700 2080 820 
Connection ~ 4910 2330
Wire Wire Line
	4910 2700 4910 2760
Connection ~ 4910 2760
Wire Wire Line
	3410 3710 3410 3860
Wire Wire Line
	1610 2410 1610 2490
Wire Wire Line
	3410 1180 3810 1180
Wire Wire Line
	6310 4250 6310 4340
Wire Wire Line
	6310 4250 6410 4250
Wire Wire Line
	5710 4250 6310 4250
Wire Wire Line
	2660 1180 2660 1360
Wire Wire Line
	3410 4250 4210 4250
Wire Wire Line
	4910 1180 5180 1180
Wire Wire Line
	3810 1180 4010 1180
Wire Wire Line
	6310 1180 6460 1180
Wire Wire Line
	5710 2760 5710 3510
Wire Wire Line
	4210 2760 4210 2960
Wire Wire Line
	4210 2760 4910 2760
Wire Wire Line
	3810 2010 3810 2180
Wire Wire Line
	4210 2010 4210 2130
Wire Wire Line
	2850 3380 3110 3380
Wire Wire Line
	2080 3380 2260 3380
Wire Wire Line
	4910 2330 4910 2400
$Comp
L aca:LED D1
U 1 1 5A0A2DC7
P 3070 2080
F 0 "D1" H 3070 2180 50  0000 C CNN
F 1 "LED" H 3070 1980 50  0000 C CNN
F 2 "LED_THT:LED_D5.0mm" H 3070 2080 50  0001 C CNN
F 3 "" H 3070 2080 50  0001 C CNN
	1    3070 2080
	0    -1   -1   0   
$EndComp
Wire Wire Line
	3070 1680 3070 1930
Wire Wire Line
	3070 1380 3070 1180
Wire Wire Line
	3070 2230 3070 2410
Connection ~ 6310 1180
Connection ~ 5710 1180
Connection ~ 3070 1180
Wire Wire Line
	3070 1180 3410 1180
Connection ~ 2660 1180
Wire Wire Line
	2660 1180 3070 1180
Connection ~ 2660 2410
Wire Wire Line
	2660 2410 3070 2410
Wire Wire Line
	1610 1180 1720 1180
Wire Wire Line
	1610 2410 2310 2410
$Comp
L Connector:TestPoint TP1
U 1 1 5B9FEF8C
P 5710 2760
F 0 "TP1" H 5768 2880 50  0000 L CNN
F 1 "10V" H 5768 2789 50  0000 L CNN
F 2 "Connector_Pin:Pin_D1.0mm_L10.0mm" H 5910 2760 50  0001 C CNN
F 3 "~" H 5910 2760 50  0001 C CNN
	1    5710 2760
	0    1    1    0   
$EndComp
$Comp
L Connector:TestPoint TP2
U 1 1 5B9FF5AF
P 5710 4250
F 0 "TP2" H 5768 4370 50  0000 L CNN
F 1 "0V" H 5768 4279 50  0000 L CNN
F 2 "Connector_Pin:Pin_D1.0mm_L10.0mm" H 5910 4250 50  0001 C CNN
F 3 "~" H 5910 4250 50  0001 C CNN
	1    5710 4250
	-1   0    0    1   
$EndComp
$Comp
L aca:CP C6
U 1 1 5B9E8EEC
P 6020 1570
F 0 "C6" V 6275 1570 50  0000 C CNN
F 1 "2200µ" V 6184 1570 50  0000 C CNN
F 2 "Capacitor_THT:CP_Radial_D16.0mm_P7.50mm" H 6058 1420 50  0001 C CNN
F 3 "" H 6020 1570 50  0001 C CNN
	1    6020 1570
	0    -1   -1   0   
$EndComp
Wire Wire Line
	5870 1570 5710 1570
Wire Wire Line
	5710 1180 5710 1570
Connection ~ 5710 1570
Wire Wire Line
	5710 1570 5710 1950
Wire Wire Line
	6170 1570 6310 1570
Wire Wire Line
	6310 1180 6310 1570
Connection ~ 6310 1570
Wire Wire Line
	6310 1570 6310 1950
$Comp
L aca:CP C5
U 1 1 5B9F4718
P 2310 1510
F 0 "C5" H 2428 1556 50  0000 L CNN
F 1 "2200µ" H 2428 1465 50  0000 L CNN
F 2 "Capacitor_THT:CP_Radial_D16.0mm_P7.50mm" H 2348 1360 50  0001 C CNN
F 3 "" H 2310 1510 50  0001 C CNN
	1    2310 1510
	1    0    0    -1  
$EndComp
Wire Wire Line
	2020 1180 2310 1180
Wire Wire Line
	2310 1360 2310 1180
Connection ~ 2310 1180
Wire Wire Line
	2310 1180 2660 1180
Wire Wire Line
	2310 1660 2310 2410
Connection ~ 2310 2410
Wire Wire Line
	2310 2410 2660 2410
$Comp
L Device:Thermistor_NTC TH1
U 1 1 5ED59694
P 1870 1180
F 0 "TH1" V 1580 1180 50  0000 C CNN
F 1 "47" V 1671 1180 50  0000 C CNN
F 2 "Varistor:RV_Disc_D15.5mm_W5.2mm_P7.5mm" H 1870 1230 50  0001 C CNN
F 3 "~" H 1870 1230 50  0001 C CNN
	1    1870 1180
	0    1    1    0   
$EndComp
$Comp
L Device:C C3
U 1 1 5ED8FF45
P 2410 3380
F 0 "C3" V 2158 3380 50  0000 C CNN
F 1 "10µ" V 2249 3380 50  0000 C CNN
F 2 "Capacitor_THT:C_Rect_L26.5mm_W8.5mm_P22.50mm_MKS4" H 2448 3230 50  0001 C CNN
F 3 "~" H 2410 3380 50  0001 C CNN
	1    2410 3380
	0    1    1    0   
$EndComp
$Comp
L Device:C C7
U 1 1 5ED9111A
P 6020 1950
F 0 "C7" V 5768 1950 50  0000 C CNN
F 1 "10µ" V 5859 1950 50  0000 C CNN
F 2 "Capacitor_THT:C_Rect_L26.5mm_W8.5mm_P22.50mm_MKS4" H 6058 1800 50  0001 C CNN
F 3 "~" H 6020 1950 50  0001 C CNN
	1    6020 1950
	0    1    1    0   
$EndComp
Wire Wire Line
	5870 1950 5710 1950
Connection ~ 5710 1950
Wire Wire Line
	5710 1950 5710 2220
Wire Wire Line
	6170 1950 6310 1950
Connection ~ 6310 1950
Wire Wire Line
	6310 1950 6310 3860
Wire Wire Line
	4210 4250 5710 4250
Wire Wire Line
	4910 2760 5710 2760
Wire Wire Line
	1310 4250 3410 4250
Text Label 1350 3380 0    60   ~ 0
in
Wire Wire Line
	1310 3380 1460 3380
Wire Wire Line
	1760 3380 2080 3380
$Comp
L aca:R R11
U 1 1 5A09FD34
P 1610 3380
F 0 "R11" V 1690 3380 50  0000 C CNN
F 1 "10k" V 1610 3380 50  0000 C CNN
F 2 "Resistor_THT:R_Axial_DIN0207_L6.3mm_D2.5mm_P10.16mm_Horizontal" V 1540 3380 50  0001 C CNN
F 3 "" H 1610 3380 50  0001 C CNN
	1    1610 3380
	0    1    1    0   
$EndComp
$Comp
L aca:Conn_01x01 J3
U 1 1 5A0A839C
P 1110 3380
F 0 "J3" H 1110 3480 50  0000 C CNN
F 1 "+in" H 1110 3280 50  0000 C CNN
F 2 "Connector_Wire:SolderWire-0.25sqmm_1x01_D0.65mm_OD1.7mm" H 1110 3380 50  0001 C CNN
F 3 "" H 1110 3380 50  0001 C CNN
	1    1110 3380
	-1   0    0    1   
$EndComp
$EndSCHEMATC
