G04 #@! TF.GenerationSoftware,KiCad,Pcbnew,(5.1.6-0-10_14)*
G04 #@! TF.CreationDate,2020-06-06T14:57:31+02:00*
G04 #@! TF.ProjectId,aca,6163612e-6b69-4636-9164-5f7063625858,rev?*
G04 #@! TF.SameCoordinates,Original*
G04 #@! TF.FileFunction,Profile,NP*
%FSLAX46Y46*%
G04 Gerber Fmt 4.6, Leading zero omitted, Abs format (unit mm)*
G04 Created by KiCad (PCBNEW (5.1.6-0-10_14)) date 2020-06-06 14:57:31*
%MOMM*%
%LPD*%
G01*
G04 APERTURE LIST*
G04 #@! TA.AperFunction,Profile*
%ADD10C,0.150000*%
G04 #@! TD*
G04 APERTURE END LIST*
D10*
X25000000Y-78000000D02*
X25000000Y-88000000D01*
X123000000Y-78000000D02*
X123000000Y-88000000D01*
X123000000Y-73000000D02*
X123000000Y-78000000D01*
X25000000Y-73000000D02*
X25000000Y-78000000D01*
X121000000Y-90000000D02*
X27000000Y-90000000D01*
X123000000Y-88000000D02*
G75*
G02*
X121000000Y-90000000I-2000000J0D01*
G01*
X123000000Y-27000000D02*
X123000000Y-73000000D01*
X25000000Y-73000000D02*
X25000000Y-27000000D01*
X27000000Y-90000000D02*
G75*
G02*
X25000000Y-88000000I0J2000000D01*
G01*
X121000000Y-25000000D02*
X27000000Y-25000000D01*
X121000000Y-25000000D02*
G75*
G02*
X123000000Y-27000000I0J-2000000D01*
G01*
X25000000Y-27000000D02*
G75*
G02*
X27000000Y-25000000I2000000J0D01*
G01*
M02*
